{
  "db": {
    "name": "db",
    "connector": "memory"
  },
  "mydb": {
    "url": "mongodb://namlxuit:0566265426@ds231360.mlab.com:31360/loopback",
    "name": "mydb",
    "connector": "loopback-connector-mongodb"
  }
}
